[
  {
    "creator": "Tomek",
    "creationDate": "2023-03-03",
    "createdAt": "2023-03-03T17:23:33Z",
    "content": "Post 3"
  },
  {
    "creator": "Tomek",
    "creationDate": "2023-04-04",
    "createdAt":"2023-04-04T17:23:44Z",
    "content": "Post 4"
  }
]